Initiation et prise en main rapide de R
…
## # A tibble: 2 x 10
##   dureconj durerecm durerecp agemere agexactm agepere agexactp durecmar
##      <dbl>    <dbl>    <dbl>   <dbl>    <dbl>   <dbl>    <dbl>    <dbl>
## 1       95       NA       NA      33       33      33       33       NA
## 2       NA       NA       NA      38       38      41       40       12
## # ... with 2 more variables: nbenf <dbl>, durecevp <dbl>

Renommer des colonnes rename()

# une liste de colonnes spcifies par leur position
tab_naissances %>% select(sexe , regnais , agemere ,csp) %>% rename(Genre=sexe, region=regnais)

## # A tibble: 79,286 x 4
##    Genre region agemere   csp
##    <chr>  <chr>   <dbl> <chr>
##  1     1     84      33    46
##  2     1     84      38    65
##  3     2     84      36    63
##  4     2     84      31    48
##  5     1     84      38    21
##  6     1     84      27    63
##  7     2     84      33    38
##  8     1     84      30    63
##  9     2     84      41    63
## 10     2     84      31    63
## # ... with 79,276 more rows
…
